{
  "content": [
    {
      "id": "d1acc89e-748f-4f8d-9a12-345dfce53bd8",
      "version": 1,
      "title": "title 5",
      "description": "description 5",
      "completed": false,
      "created_date": "2024-05-11T16:26:21.197390Z",
      "last_modified_date": "2024-05-11T16:26:21.198389Z"
    }
  ],
  "pageable": {
    "pageNumber": 4,
    "pageSize": 1,
    "sort": {
      "empty": true,
      "sorted": false,
      "unsorted": true
    },
    "offset": 4,
    "paged": true,
    "unpaged": false
  },
  "last": true,
  "totalElements": 5,
  "totalPages": 5,
  "size": 1,
  "number": 4,
  "sort": {
    "empty": true,
    "sorted": false,
    "unsorted": true
  },
  "first": false,
  "numberOfElements": 1,
  "empty": false
}