{
  "content": [
    {
      "id": "d7ec4eca-4234-4d66-a47c-02f3ced8bc9a",
      "version": 1,
      "title": "title 1",
      "description": "description 1",
      "completed": false,
      "created_date": "2024-05-11T16:24:24.487429Z",
      "last_modified_date": "2024-05-11T16:24:24.519411Z"
    }
  ],
  "pageable": {
    "pageNumber": 0,
    "pageSize": 1,
    "sort": {
      "empty": true,
      "sorted": false,
      "unsorted": true
    },
    "offset": 0,
    "paged": true,
    "unpaged": false
  },
  "last": false,
  "totalElements": 5,
  "totalPages": 5,
  "size": 1,
  "number": 0,
  "sort": {
    "empty": true,
    "sorted": false,
    "unsorted": true
  },
  "first": true,
  "numberOfElements": 1,
  "empty": false
}